capteurs/model/PressionHome.class
capteurs/model/TemperatureSchool.class
capteurs/DAO/TemperatureDAO.class
capteurs/model/HumiditeHome.class
capteurs/Application.class
capteurs/DAO/TemperatureSchoolDAO.class
capteurs/DAO/HumiditeDAO.class
capteurs/model/Humidite.class
capteurs/DAO/PressionHomeDAO.class
capteurs/DAO/PressionSchoolDAO.class
capteurs/model/TemperatureHome.class
capteurs/model/HumiditeSchool.class
capteurs/model/Pression.class
capteurs/DAO/TemperatureHomeDAO.class
capteurs/LibController.class
capteurs/model/PressionSchool.class
capteurs/DAO/HumiditeSchoolDAO.class
capteurs/model/Temperature.class
capteurs/DAO/PressionDAO.class
capteurs/DAO/HumiditeHomeDAO.class
